Manejo de datos
…
 <=

 == (igual)

 != (no es igual)

filter()

Se retienen todos los participantes hombres.

filter(datos,
       sexo == "Hombre")

## # A tibble: 119 × 25
##       ID sexo   edad hijos actividad educacion civil satisfaccion1 satisfaccion2
##    <dbl> <chr> <dbl> <chr> <chr>     <chr>     <chr> <chr>         <chr>        
##  1   199 Homb…    20 No    Desemple… Media co… Solt… Ni de acuerd… Ligeramente …
##  2   201 Homb…    21 No    Estudia   Superior… Solt… Ligeramente … De acuerdo   
##  3   202 Homb…  -999 No    Estudia … Media co… Solt… Ligeramente … Ligeramente …
##  4   205 Homb…    33 No    Trabaja   Superior… Solt… Ligeramente … De acuerdo   
##  5   210 Homb…    60 No    Trabaja   Básica c… Solt… Ligeramente … Ligeramente …
##  6   211 Homb…    52 Sí    Jefe/a d… Superior… Viud… Ligeramente … Ligeramente …
##  7   212 Homb…    36 Sí    Estudia … Superior… Casa… De acuerdo    De acuerdo   
##  8   217 Homb…    26 No    Trabaja   Superior… Solt… Ligeramente … De acuerdo   
##  9   224 Homb…    35 Sí    Trabaja   Media co… Casa… Ni de acuerd… Ligeramente …
## 10   225 Homb…    38 Sí    Trabaja   Superior… Casa… Totalmente d… De acuerdo   
## # ℹ 109 more rows
## # ℹ 16 more variables: satisfaccion3 <chr>, satisfaccion4 <chr>,
## #   satisfaccion5 <chr>, apoyo1 <chr>, apoyo2 <chr>, apoyo3 <chr>,
## #   apoyo4 <chr>, apoyo5 <chr>, apoyo6 <chr>, felicidad1 <chr>,
## #   felicidad2 <chr>, felicidad3 <chr>, felicidad4 <chr>, glucosa_ayuna <dbl>,
## #   IMC <dbl>, AF <dbl>

Se retienen todos los participantes con edades iguales o mayores a 25
años.

filter(datos,
       edad >= 25)

## # A tibble: 240 × 25
##       ID sexo   edad hijos actividad educacion civil satisfaccion1 satisfaccion2
##    <dbl> <chr> <dbl> <chr> <chr>     <chr>     <chr> <chr>         <chr>        
##  1   193 Mujer    64 Sí    -999      Superior… Viud… Totalmente d… Totalmente d…
##  2   195 Mujer    32 No    Trabaja   Superior… Solt… Ligeramente … Ligeramente …
##  3   197 Mujer    30 Sí    Estudia   Superior… Casa… Ligeramente … En desacuerdo
##  4   203 Mujer    53 Sí    Jefe/a d… Básica c… Sepa… Totalmente e… Totalmente e…
##  5   205 Homb…    33 No    Trabaja   Superior… Solt… Ligeramente … De acuerdo   
##  6   206 Mujer    37 Sí    Trabaja   Superior… Solt… Ligeramente … Ligeramente …
##  7   207 Mujer    29 Sí    Estudia … Media co… Solt… De acuerdo    Ni de acuerd…
##  8   209 Mujer    55 Sí    Jefe/a d… Superior… Casa… En desacuerdo En desacuerdo
##  9   210 Homb…    60 No    Trabaja   Básica c… Solt… Ligeramente … Ligeramente …
## 10   211 Homb…    52 Sí    Jefe/a d… Superior… Viud… Ligeramente … Ligeramente …
## # ℹ 230 more rows
## # ℹ 16 more variables: satisfaccion3 <chr>, satisfaccion4 <chr>,
## #   satisfaccion5 <chr>, apoyo1 <chr>, apoyo2 <chr>, apoyo3 <chr>,
## #   apoyo4 <chr>, apoyo5 <chr>, apoyo6 <chr>, felicidad1 <chr>,
## #   felicidad2 <chr>, felicidad3 <chr>, felicidad4 <chr>, glucosa_ayuna <dbl>,
## #   IMC <dbl>, AF <dbl>
…
Se pueden combinar condiciones de filtrado utilizando
operadores Booleanos:

& significa y.

 | significa o.

Se retienen todos los participantes hombres y que
tienen edades iguales o mayores a 25 años.

filter(datos,
       sexo == "Hombre" & edad >= 25)

## # A tibble: 90 × 25
##       ID sexo   edad hijos actividad educacion civil satisfaccion1 satisfaccion2
##    <dbl> <chr> <dbl> <chr> <chr>     <chr>     <chr> <chr>         <chr>        
##  1   205 Homb…    33 No    Trabaja   Superior… Solt… Ligeramente … De acuerdo   
##  2   210 Homb…    60 No    Trabaja   Básica c… Solt… Ligeramente … Ligeramente …
##  3   211 Homb…    52 Sí    Jefe/a d… Superior… Viud… Ligeramente … Ligeramente …
##  4   212 Homb…    36 Sí    Estudia … Superior… Casa… De acuerdo    De acuerdo   
##  5   217 Homb…    26 No    Trabaja   Superior… Solt… Ligeramente … De acuerdo   
##  6   224 Homb…    35 Sí    Trabaja   Media co… Casa… Ni de acuerd… Ligeramente …
##  7   225 Homb…    38 Sí    Trabaja   Superior… Casa… Totalmente d… De acuerdo   
##  8   235 Homb…    34 No    Trabaja   Superior… Solt… De acuerdo    De acuerdo   
##  9   239 Homb…    26 No    Trabaja   Superior… Solt… De acuerdo    De acuerdo   
## 10   240 Homb…    32 No    Trabaja   Superior… Solt… De acuerdo    De acuerdo   
## # ℹ 80 more rows
## # ℹ 16 more variables: satisfaccion3 <chr>, satisfaccion4 <chr>,
## #   satisfaccion5 <chr>, apoyo1 <chr>, apoyo2 <chr>, apoyo3 <chr>,
## #   apoyo4 <chr>, apoyo5 <chr>, apoyo6 <chr>, felicidad1 <chr>,
## #   felicidad2 <chr>, felicidad3 <chr>, felicidad4 <chr>, glucosa_ayuna <dbl>,
## #   IMC <dbl>, AF <dbl>

Se retienen todos los participantes hombres o que
tienen edades iguales o mayores a 25 años.

filter(datos,
       sexo == "Hombre" | edad >= 25)

## # A tibble: 269 × 25
##       ID sexo   edad hijos actividad educacion civil satisfaccion1 satisfaccion2
##    <dbl> <chr> <dbl> <chr> <chr>     <chr>     <chr> <chr>         <chr>        
##  1   193 Mujer    64 Sí    -999      Superior… Viud… Totalmente d… Totalmente d…
##  2   195 Mujer    32 No    Trabaja   Superior… Solt… Ligeramente … Ligeramente …
##  3   197 Mujer    30 Sí    Estudia   Superior… Casa… Ligeramente … En desacuerdo
##  4   199 Homb…    20 No    Desemple… Media co… Solt… Ni de acuerd… Ligeramente …
##  5   201 Homb…    21 No    Estudia   Superior… Solt… Ligeramente … De acuerdo   
##  6   202 Homb…  -999 No    Estudia … Media co… Solt… Ligeramente … Ligeramente …
##  7   203 Mujer    53 Sí    Jefe/a d… Básica c… Sepa… Totalmente e… Totalmente e…
##  8   205 Homb…    33 No    Trabaja   Superior… Solt… Ligeramente … De acuerdo   
##  9   206 Mujer    37 Sí    Trabaja   Superior… Solt… Ligeramente … Ligeramente …
## 10   207 Mujer    29 Sí    Estudia … Media co… Solt… De acuerdo    Ni de acuerd…
## # ℹ 259 more rows
## # ℹ 16 more variables: satisfaccion3 <chr>, satisfaccion4 <chr>,
## #   satisfaccion5 <chr>, apoyo1 <chr>, apoyo2 <chr>, apoyo3 <chr>,
## #   apoyo4 <chr>, apoyo5 <chr>, apoyo6 <chr>, felicidad1 <chr>,
## #   felicidad2 <chr>, felicidad3 <chr>, felicidad4 <chr>, glucosa_ayuna <dbl>,
## #   IMC <dbl>, AF <dbl>

Otro ejemplo de filter()

Se filtran a todos los participantes que no están
casados(as).

filter(datos,
       !civil == "Casado-a")

## # A tibble: 209 × 25
##       ID sexo   edad hijos actividad educacion civil satisfaccion1 satisfaccion2
##    <dbl> <chr> <dbl> <chr> <chr>     <chr>     <chr> <chr>         <chr>        
##  1   192 -999     24 No    Trabaja   Superior… Solt… De acuerdo    De acuerdo   
##  2   193 Mujer    64 Sí    -999      Superior… Viud… Totalmente d… Totalmente d…
##  3   195 Mujer    32 No    Trabaja   Superior… Solt… Ligeramente … Ligeramente …
##  4   196 -999     22 No    Estudia   Media co… Solt… Ni de acuerd… En desacuerdo
##  5   198 Mujer    23 No    Estudia   Superior… Solt… De acuerdo    Ligeramente …
##  6   199 Homb…    20 No    Desemple… Media co… Solt… Ni de acuerd… Ligeramente …
##  7   200 Mujer    23 No    Estudia   Superior… Solt… Ligeramente … Ligeramente …
##  8   201 Homb…    21 No    Estudia   Superior… Solt… Ligeramente … De acuerdo   
##  9   202 Homb…  -999 No    Estudia … Media co… Solt… Ligeramente … Ligeramente …
## 10   203 Mujer    53 Sí    Jefe/a d… Básica c… Sepa… Totalmente e… Totalmente e…
## # ℹ 199 more rows
## # ℹ 16 more variables: satisfaccion3 <chr>, satisfaccion4 <chr>,
## #   satisfaccion5 <chr>, apoyo1 <chr>, apoyo2 <chr>, apoyo3 <chr>,
## #   apoyo4 <chr>, apoyo5 <chr>, apoyo6 <chr>, felicidad1 <chr>,
## #   felicidad2 <chr>, felicidad3 <chr>, felicidad4 <chr>, glucosa_ayuna <dbl>,
## #   IMC <dbl>, AF <dbl>

select()

La función select() permite crear subconjuntos de
columnas (variables) específicas de un dataset.

Las columnas se ordenan según su ingreso a select().

Se seleccionan los primeros tres ítems de felicidad.

select(datos,
       felicidad1, felicidad2, felicidad3)

## # A tibble: 300 × 3
##    felicidad1                felicidad2                felicidad3               
##    <chr>                     <chr>                     <chr>                    
##  1 4                         4                         2                        
##  2 Me describe completamente Me describe completamente Me describe completamente
##  3 5                         5                         5                        
##  4 5                         5                         5                        
##  5 4                         4                         3                        
##  6 5                         5                         4                        
##  7 3                         4                         5                        
##  8 6                         6                         5                        
##  9 6                         6                         5                        
## 10 5                         5                         4                        
## # ℹ 290 more rows

select()

También se pueden seleccionar secuencias de columnas que están
seguidas en el dataset.

select(datos,
       apoyo1:apoyo6, edad)

## # A tibble: 300 × 7
##    apoyo1        apoyo2        apoyo3        apoyo4        apoyo5   apoyo6  edad
##    <chr>         <chr>         <chr>         <chr>         <chr>    <chr>  <dbl>
##  1 Siempre       Siempre       Siempre       Siempre       Siempre  Siemp…    24
##  2 Siempre       Siempre       Siempre       Siempre       Siempre  Siemp…    64
##  3 Siempre       Siempre       Siempre       Siempre       Siempre  Siemp…    32
##  4 Algunas veces Algunas veces Siempre       Casi siempre  Siempre  Siemp…    22
##  5 Algunas veces Algunas veces Casi siempre  Algunas veces Algunas… Casi …    30
##  6 Casi siempre  Casi siempre  Casi siempre  Casi siempre  Casi si… Casi …    23
##  7 Casi siempre  Algunas veces Siempre       Siempre       Siempre  Siemp…    20
##  8 Casi siempre  Siempre       Siempre       Nunca         Siempre  Siemp…    23
##  9 Casi siempre  Casi siempre  Algunas veces Casi nunca    Algunas… Casi …    21
## 10 Algunas veces Algunas veces Algunas veces Algunas veces Algunas… Algun…  -999
## # ℹ 290 more rows

select()

Se seleccionan todas las variables menos la edad.

select(datos,
       -edad)

## # A tibble: 300 × 24
##       ID sexo   hijos actividad      educacion civil satisfaccion1 satisfaccion2
##    <dbl> <chr>  <chr> <chr>          <chr>     <chr> <chr>         <chr>        
##  1   192 -999   No    Trabaja        Superior… Solt… De acuerdo    De acuerdo   
##  2   193 Mujer  Sí    -999           Superior… Viud… Totalmente d… Totalmente d…
##  3   195 Mujer  No    Trabaja        Superior… Solt… Ligeramente … Ligeramente …
##  4   196 -999   No    Estudia        Media co… Solt… Ni de acuerd… En desacuerdo
##  5   197 Mujer  Sí    Estudia        Superior… Casa… Ligeramente … En desacuerdo
##  6   198 Mujer  No    Estudia        Superior… Solt… De acuerdo    Ligeramente …
##  7   199 Hombre No    Desempleado    Media co… Solt… Ni de acuerd… Ligeramente …
##  8   200 Mujer  No    Estudia        Superior… Solt… Ligeramente … Ligeramente …
##  9   201 Hombre No    Estudia        Superior… Solt… Ligeramente … De acuerdo   
## 10   202 Hombre No    Estudia y tra… Media co… Solt… Ligeramente … Ligeramente …
## # ℹ 290 more rows
## # ℹ 16 more variables: satisfaccion3 <chr>, satisfaccion4 <chr>,
## #   satisfaccion5 <chr>, apoyo1 <chr>, apoyo2 <chr>, apoyo3 <chr>,
## #   apoyo4 <chr>, apoyo5 <chr>, apoyo6 <chr>, felicidad1 <chr>,
## #   felicidad2 <chr>, felicidad3 <chr>, felicidad4 <chr>, glucosa_ayuna <dbl>,
## #   IMC <dbl>, AF <dbl>

Se seleccionan todas las variables menos aquellas que están entre
satisfaccion3 y apoyo5.

select(datos,
       -c(satisfaccion3:apoyo5))

## # A tibble: 300 × 17
##       ID sexo   edad hijos actividad educacion civil satisfaccion1 satisfaccion2
##    <dbl> <chr> <dbl> <chr> <chr>     <chr>     <chr> <chr>         <chr>        
##  1   192 -999     24 No    Trabaja   Superior… Solt… De acuerdo    De acuerdo   
##  2   193 Mujer    64 Sí    -999      Superior… Viud… Totalmente d… Totalmente d…
##  3   195 Mujer    32 No    Trabaja   Superior… Solt… Ligeramente … Ligeramente …
##  4   196 -999     22 No    Estudia   Media co… Solt… Ni de acuerd… En desacuerdo
##  5   197 Mujer    30 Sí    Estudia   Superior… Casa… Ligeramente … En desacuerdo
##  6   198 Mujer    23 No    Estudia   Superior… Solt… De acuerdo    Ligeramente …
##  7   199 Homb…    20 No    Desemple… Media co… Solt… Ni de acuerd… Ligeramente …
##  8   200 Mujer    23 No    Estudia   Superior… Solt… Ligeramente … Ligeramente …
##  9   201 Homb…    21 No    Estudia   Superior… Solt… Ligeramente … De acuerdo   
## 10   202 Homb…  -999 No    Estudia … Media co… Solt… Ligeramente … Ligeramente …
## # ℹ 290 more rows
## # ℹ 8 more variables: apoyo6 <chr>, felicidad1 <chr>, felicidad2 <chr>,
## #   felicidad3 <chr>, felicidad4 <chr>, glucosa_ayuna <dbl>, IMC <dbl>,
## #   AF <dbl>
…
Empareja nombres que contienen “ijk”.

num_range(“x”, 1:3)

Empareja x1, x2 y x3.

select()

Se seleccionan todas las variables que comienzan con “felicidad”.

select(datos, 
       starts_with("felicidad"))

## # A tibble: 300 × 4
##    felicidad1                felicidad2                felicidad3     felicidad4
##    <chr>                     <chr>                     <chr>          <chr>     
##  1 4                         4                         2              4         
##  2 Me describe completamente Me describe completamente Me describe c… 6         
##  3 5                         5                         5              6         
##  4 5                         5                         5              3         
##  5 4                         4                         3              4         
##  6 5                         5                         4              2         
##  7 3                         4                         5              3         
##  8 6                         6                         5              5         
##  9 6                         6                         5              4         
## 10 5                         5                         4              3         
## # ℹ 290 more rows

Se seleccionan todas las variables que terminan con 2.

select(datos, 
       ends_with("2"))

## # A tibble: 300 × 3
##    satisfaccion2             apoyo2        felicidad2               
##    <chr>                     <chr>         <chr>                    
##  1 De acuerdo                Siempre       4                        
##  2 Totalmente de acuerdo     Siempre       Me describe completamente
##  3 Ligeramente de acuerdo    Siempre       5                        
##  4 En desacuerdo             Algunas veces 5                        
##  5 En desacuerdo             Algunas veces 4                        
##  6 Ligeramente de acuerdo    Casi siempre  5                        
##  7 Ligeramente de acuerdo    Algunas veces 4                        
##  8 Ligeramente de acuerdo    Siempre       6                        
##  9 De acuerdo                Casi siempre  6                        
## 10 Ligeramente en desacuerdo Algunas veces 5                        
## # ℹ 290 more rows
arrange()

La función arrange() permite ordenar las filas
(casos) de una o más columnas (variables).

Por defecto, las filas se ordenan de manera
creciente.

Se ordenan los datos de menor a mayor según los niveles de glucosa en
sangre.

arrange(datos,
        glucosa_ayuna)

## # A tibble: 300 × 25
##       ID sexo   edad hijos actividad educacion civil satisfaccion1 satisfaccion2
##    <dbl> <chr> <dbl> <chr> <chr>     <chr>     <chr> <chr>         <chr>        
##  1   458 Mujer    25 No    Trabaja   Superior… Solt… Totalmente e… Totalmente e…
##  2   268 Homb…    26 Sí    Trabaja   Superior… Solt… De acuerdo    De acuerdo   
##  3   432 Homb…    42 Sí    Trabaja   Superior… Solt… En desacuerdo De acuerdo   
##  4   273 Homb…    34 Sí    Trabaja   Media in… Casa… De acuerdo    De acuerdo   
##  5   231 Homb…    20 No    Estudia   Superior… Solt… Ligeramente … De acuerdo   
##  6   481 Mujer    19 No    Estudia   Superior… Solt… Totalmente d… Totalmente d…
##  7   305 Mujer    28 No    Estudia … Superior… Casa… Totalmente d… De acuerdo   
##  8   206 Mujer    37 Sí    Trabaja   Superior… Solt… Ligeramente … Ligeramente …
##  9   417 Mujer    50 Sí    Jefe/a d… Media in… Casa… De acuerdo    De acuerdo   
## 10   243 Mujer    53 Sí    Trabaja   Media co… Sepa… Totalmente e… En desacuerdo
## # ℹ 290 more rows
## # ℹ 16 more variables: satisfaccion3 <chr>, satisfaccion4 <chr>,
## #   satisfaccion5 <chr>, apoyo1 <chr>, apoyo2 <chr>, apoyo3 <chr>,
## #   apoyo4 <chr>, apoyo5 <chr>, apoyo6 <chr>, felicidad1 <chr>,
## #   felicidad2 <chr>, felicidad3 <chr>, felicidad4 <chr>, glucosa_ayuna <dbl>,
## #   IMC <dbl>, AF <dbl>

arrange()

Las filas de una columna se ordenan de manera decreciente con
desc().

arrange(datos, 
        desc(glucosa_ayuna))

## # A tibble: 300 × 25
##       ID sexo   edad hijos actividad educacion civil satisfaccion1 satisfaccion2
##    <dbl> <chr> <dbl> <chr> <chr>     <chr>     <chr> <chr>         <chr>        
##  1   405 Homb…    49 Sí    Trabaja   Superior… Casa… Ligeramente … Ligeramente …
##  2   375 Mujer    41 Sí    Trabaja   Superior… Casa… Totalmente d… Totalmente d…
##  3   308 Homb…    48 No    Trabaja   Superior… Solt… Totalmente e… Totalmente e…
##  4   416 Homb…    25 No    Estudia … Superior… Solt… De acuerdo    Ni de acuerd…
##  5   320 Mujer    37 No    Trabaja   Superior… Solt… De acuerdo    Totalmente d…
##  6   430 Homb…    45 Sí    Jefe/a d… Superior… Casa… -999          De acuerdo   
##  7   480 Homb…    20 No    Estudia … Media co… Solt… Ligeramente … Ligeramente …
##  8   448 Mujer    23 No    Trabaja   Superior… Solt… Ligeramente … Ligeramente …
##  9   362 Homb…    63 Sí    Trabaja   Media co… Casa… De acuerdo    Ni de acuerd…
## 10   300 Mujer    48 Sí    Trabaja   Superior… -999  De acuerdo    De acuerdo   
## # ℹ 290 more rows
## # ℹ 16 more variables: satisfaccion3 <chr>, satisfaccion4 <chr>,
## #   satisfaccion5 <chr>, apoyo1 <chr>, apoyo2 <chr>, apoyo3 <chr>,
## #   apoyo4 <chr>, apoyo5 <chr>, apoyo6 <chr>, felicidad1 <chr>,
## #   felicidad2 <chr>, felicidad3 <chr>, felicidad4 <chr>, glucosa_ayuna <dbl>,
## #   IMC <dbl>, AF <dbl>
…
